<?xml version="1.0" encoding="utf-8"?>
      <!-- Exported from Coolors.co - https://coolors.co/1c473b-111111-fae47c-ed5f4b-307361 -->
      <svg xmlns="http://www.w3.org/2000/svg" xmlns:xlink="http://www.w3.org/1999/xlink" version="1.1" viewBox="0 0 500 250" xml:space="preserve">
        <rect fill="#1C473B" x="0" y="0" width="100" height="220"/>,<rect fill="#111111" x="100" y="0" width="100" height="220"/>,<rect fill="#FAE47C" x="200" y="0" width="100" height="220"/>,<rect fill="#ED5F4B" x="300" y="0" width="100" height="220"/>,<rect fill="#307361" x="400" y="0" width="100" height="220"/>
        <text x="10" y="235" font-family="Arial" font-size="6" alignment-baseline="middle">Exported from Coolors.co</text>
        <text x="490" y="235" font-family="Arial" font-size="6" alignment-baseline="middle" text-anchor="end">https://coolors.co/1c473b-111111-fae47c-ed5f4b-307361</text>
      </svg>